module gitlab.com/jurriaanbrandsmaflogoextensions/mynumclass

require (
	github.com/pkg/errors v0.9.1 // indirect
	github.com/project-flogo/core v0.9.4-hf.1
	github.com/stretchr/testify v1.4.0
)

go 1.12
